{
    // props
    "typename": "wheel",
    "name": "Default wheel",
    "radius": 66.04,// 26in

    // gfx
    "mesh": "objects/wheel.mesh",
    "material": "Examples/Chrome",

    "phys": {
        "shapeType": 2,
        "friction": 100,
        "mass": 2.0,
        "colType": 1, // COL_BIKE
        "colWith": 6  // COL_WALL|COL_POWERUP
    }

}
