
// blender material: Material.002
material greensnow
{
    receive_shadows on
    technique b2ogre_1333904014.583074
    {
        pass b2ogre_1333904014.643818
        {
            ambient 0.393483 0.420226 0.313291 1.000000
            diffuse 0.314787 0.336181 0.250633 1.000000
            specular 0.500000 0.500000 0.500000 1.000000 12.500000
            emissive 0.000000 0.000000 0.000000 1.000000
            texture_unit b2ogre_1333904014.658073
            {
                texture snow-3087716572_e27ca0cde2.jpg
                tex_address_mode wrap
                scale 1.0 1.0
                colour_op modulate
            }
        }
    }
}
